{
    "KPlugin": {
        "Authors": [
            {
                "Name": "Nicolas Fella",
                "Name[ar]": "Nicolas Fella",
                "Name[az]": "Nicolas Fella",
                "Name[ca@valencia]": "Nicolas Fella",
                "Name[ca]": "Nicolas Fella",
                "Name[cs]": "Nicolas Fella",
                "Name[da]": "Nicolas Fella",
                "Name[de]": "Nicolas Fella",
                "Name[el]": "Nicolas Fella",
                "Name[en_GB]": "Nicolas Fella",
                "Name[es]": "Nicolas Fella",
                "Name[et]": "Nicolas Fella",
                "Name[eu]": "Nicolas Fella",
                "Name[fi]": "Nicolas Fella",
                "Name[fr]": "Nicolas Fella",
                "Name[gl]": "Nicolas Fella",
                "Name[hu]": "Nicolas Fella",
                "Name[ia]": "Nicolas Fella",
                "Name[id]": "Nicolas Fella",
                "Name[it]": "Nicolas Fella",
                "Name[ko]": "Nicolas Fella",
                "Name[lt]": "Nicolas Fella",
                "Name[nl]": "Nicolas Fella",
                "Name[nn]": "Nicolas Fella",
                "Name[pl]": "Nicolas Fella",
                "Name[pt]": "Nicolas Fella",
                "Name[pt_BR]": "Nicolas Fella",
                "Name[ru]": "Nicolas Fella",
                "Name[sk]": "Nicolas Fella",
                "Name[sl]": "Nicolas Fella",
                "Name[sv]": "Nicolas Fella",
                "Name[tg]": "Николас Фелла (Nicolas Fella)",
                "Name[uk]": "Nicolas Fella",
                "Name[x-test]": "xxNicolas Fellaxx",
                "Name[zh_CN]": "Nicolas Fella",
                "Name[zh_TW]": "Nicolas Fella"
            }
        ],
        "Category": "Utilities",
        "Description": "Send via Telegram",
        "Description[ar]": "أرسِل عبر «تلغرام»",
        "Description[az]": "Telegram ilə göndər",
        "Description[ca@valencia]": "Envia via Telegram",
        "Description[ca]": "Envia via Telegram",
        "Description[cs]": "Poslat přes Telegram",
        "Description[da]": "Send via Telegram",
        "Description[de]": "Mit Telegram senden",
        "Description[el]": "Αποστολή μέσω Telegram",
        "Description[en_GB]": "Send via Telegram",
        "Description[es]": "Enviar por Telegram",
        "Description[et]": "Saatmine Telegrami kaudu",
        "Description[eu]": "Bidali Telegram bidez",
        "Description[fi]": "Lähetä Telegramilla",
        "Description[fr]": "Envoyer par Telegram",
        "Description[gl]": "Enviar por Telegram",
        "Description[hu]": "Küldés Telegramon",
        "Description[ia]": "Invia via Telegram",
        "Description[id]": "Kirimkan via Telegram",
        "Description[it]": "Invia con Telegram",
        "Description[ko]": "텔레그램으로 보내기",
        "Description[lt]": "Siųsti per Telegram",
        "Description[ml]": "ടെലഗ്രാമിലൂടെ അയക്കുക",
        "Description[nl]": "Verzenden via Telegram",
        "Description[nn]": "Send via Telegram",
        "Description[pl]": "Prześlij przez Telegram",
        "Description[pt]": "Enviar por Telegram",
        "Description[pt_BR]": "Envia via Telegram",
        "Description[ru]": "Отправка в Telegram",
        "Description[sk]": "Poslať cez Telegram",
        "Description[sl]": "Pošlji prek programa Telegram",
        "Description[sv]": "Skicka via Telegram",
        "Description[tg]": "Фиристодан ба воситаи Telegram",
        "Description[uk]": "Надсилання за допомогою Telegram",
        "Description[x-test]": "xxSend via Telegramxx",
        "Description[zh_CN]": "通过 Telegram 发送",
        "Description[zh_TW]": "透過 Telegram 傳送",
        "Icon": "telegram",
        "License": "GPL",
        "Name": "Send via Telegram",
        "Name[ar]": "أرسِل عبر «تلغرام»",
        "Name[az]": "Teleqram ilə göndərmək",
        "Name[ca]": "Envia via Telegram",
        "Name[cs]": "Poslat přes Telegram",
        "Name[da]": "Send via Telegram",
        "Name[de]": "Mit Telegram senden",
        "Name[el]": "Αποστολή μέσω Telegram",
        "Name[en_GB]": "Send via Telegram",
        "Name[es]": "Enviar por Telegram",
        "Name[et]": "Saatmine Telegrami abil",
        "Name[eu]": "Bidali Telegram bidez",
        "Name[fi]": "Lähetä Telegramilla",
        "Name[fr]": "Envoyer par Telegram",
        "Name[gl]": "Enviar por Telegram",
        "Name[hu]": "Küldés Telegramon",
        "Name[ia]": "Invia via Telegram",
        "Name[id]": "Kirimkan via Telegram",
        "Name[it]": "Invia con Telegram",
        "Name[ko]": "텔레그램으로 보내기",
        "Name[lt]": "Siųsti per Telegram",
        "Name[ml]": "ടെലഗ്രാമിലൂടെ അയക്കുക",
        "Name[nl]": "Verzenden via Telegram",
        "Name[nn]": "Send via Telegram",
        "Name[pl]": "Prześlij przez Telegram",
        "Name[pt]": "Enviar por Telegram",
        "Name[pt_BR]": "Enviar via Telegram",
        "Name[ru]": "Отправка в Telegram",
        "Name[sk]": "Poslať cez Telegram",
        "Name[sl]": "Pošlji prek Telegrama",
        "Name[sv]": "Skicka via Telegram",
        "Name[tg]": "Фиристодан ба воситаи Telegram",
        "Name[uk]": "Надсилання за допомогою Telegram",
        "Name[x-test]": "xxSend via Telegramxx",
        "Name[zh_CN]": "通过 Telegram 发送",
        "Name[zh_TW]": "透過 Telegram 傳送",
        "X-Purpose-ActionDisplay": "Send via Telegram...",
        "X-Purpose-ActionDisplay[ar]": "أرسِل عبر «تلغرام»...",
        "X-Purpose-ActionDisplay[az]": "Telegram ilə göndər...",
        "X-Purpose-ActionDisplay[ca]": "Envia via Telegram...",
        "X-Purpose-ActionDisplay[cs]": "Poslat přes Telegram...",
        "X-Purpose-ActionDisplay[da]": "Send via Telegram...",
        "X-Purpose-ActionDisplay[de]": "Mit Telegram senden ...",
        "X-Purpose-ActionDisplay[el]": "Αποστολή μέσω Telegram...",
        "X-Purpose-ActionDisplay[en_GB]": "Send via Telegram...",
        "X-Purpose-ActionDisplay[es]": "Enviar por Telegram...",
        "X-Purpose-ActionDisplay[et]": "Saada Telegrami kaudu ...",
        "X-Purpose-ActionDisplay[eu]": "Bidali Telegram bidez...",
        "X-Purpose-ActionDisplay[fi]": "Lähetä Telegramilla…",
        "X-Purpose-ActionDisplay[fr]": "Envoyer par Telegram...",
        "X-Purpose-ActionDisplay[gl]": "Enviar por Telegram…",
        "X-Purpose-ActionDisplay[hu]": "Küldés Telegramon…",
        "X-Purpose-ActionDisplay[ia]": "Invia via Telegram...",
        "X-Purpose-ActionDisplay[id]": "Kirimkan via Telegram...",
        "X-Purpose-ActionDisplay[it]": "Invia con Telegram...",
        "X-Purpose-ActionDisplay[ko]": "텔레그램으로 보내기...",
        "X-Purpose-ActionDisplay[lt]": "Siųsti per Telegram...",
        "X-Purpose-ActionDisplay[ml]": "ടെലഗ്രാമിലൂടെ അയക്കുക...",
        "X-Purpose-ActionDisplay[nl]": "Verzenden via Telegram...",
        "X-Purpose-ActionDisplay[nn]": "Send via Telegram …",
        "X-Purpose-ActionDisplay[pl]": "Prześlij przez Telegram...",
        "X-Purpose-ActionDisplay[pt]": "Enviar por Telegram...",
        "X-Purpose-ActionDisplay[pt_BR]": "Enviar via Telegram...",
        "X-Purpose-ActionDisplay[ru]": "Отправить в Telegram...",
        "X-Purpose-ActionDisplay[sk]": "Poslať cez Telegram...",
        "X-Purpose-ActionDisplay[sl]": "Pošlji prek Telegrama...",
        "X-Purpose-ActionDisplay[sv]": "Skicka via Telegram...",
        "X-Purpose-ActionDisplay[ta]": "Telegram மூலம் அனுப்பு...",
        "X-Purpose-ActionDisplay[tg]": "Фиристодан ба воситаи Telegram...",
        "X-Purpose-ActionDisplay[uk]": "Надіслати за допомогою Telegram…",
        "X-Purpose-ActionDisplay[x-test]": "xxSend via Telegram...xx",
        "X-Purpose-ActionDisplay[zh_CN]": "通过 Telegram 发送...",
        "X-Purpose-ActionDisplay[zh_TW]": "透過 Telegram 傳送……"
    },
    "X-Purpose-Configuration": [],
    "X-Purpose-Constraints": [
        [
            "application:org.telegram.desktop.desktop",
            "application:telegramdesktop.desktop",
            "application:telegram-desktop.desktop"
        ]
    ],
    "X-Purpose-PluginTypes": [
        "Export"
    ]
}
