{
    "KPlugin": {
        "Authors": [
            {
                "Name": "Nicolas Fella",
                "Name[ar]": "Nicolas Fella",
                "Name[az]": "Nicolas Fella",
                "Name[ca@valencia]": "Nicolas Fella",
                "Name[ca]": "Nicolas Fella",
                "Name[cs]": "Nicolas Fella",
                "Name[da]": "Nicolas Fella",
                "Name[de]": "Nicolas Fella",
                "Name[el]": "Nicolas Fella",
                "Name[en_GB]": "Nicolas Fella",
                "Name[es]": "Nicolas Fella",
                "Name[et]": "Nicolas Fella",
                "Name[eu]": "Nicolas Fella",
                "Name[fi]": "Nicolas Fella",
                "Name[fr]": "Nicolas Fella",
                "Name[gl]": "Nicolas Fella",
                "Name[hu]": "Nicolas Fella",
                "Name[ia]": "Nicolas Fella",
                "Name[id]": "Nicolas Fella",
                "Name[it]": "Nicolas Fella",
                "Name[ko]": "Nicolas Fella",
                "Name[lt]": "Nicolas Fella",
                "Name[nl]": "Nicolas Fella",
                "Name[nn]": "Nicolas Fella",
                "Name[pl]": "Nicolas Fella",
                "Name[pt]": "Nicolas Fella",
                "Name[pt_BR]": "Nicolas Fella",
                "Name[ru]": "Nicolas Fella",
                "Name[sk]": "Nicolas Fella",
                "Name[sl]": "Nicolas Fella",
                "Name[sv]": "Nicolas Fella",
                "Name[tg]": "Николас Фелла (Nicolas Fella)",
                "Name[uk]": "Nicolas Fella",
                "Name[x-test]": "xxNicolas Fellaxx",
                "Name[zh_CN]": "Nicolas Fella",
                "Name[zh_TW]": "Nicolas Fella"
            }
        ],
        "Category": "Utilities",
        "Description": "Send via Bluetooth",
        "Description[ar]": "أرسِل عبر بلوتوث",
        "Description[az]": "Bluetooth ilə göndərmək",
        "Description[ca@valencia]": "Envia per Bluetooth",
        "Description[ca]": "Envia per Bluetooth",
        "Description[cs]": "Poslat přes Bluetooth",
        "Description[da]": "Send via Bluetooth",
        "Description[de]": "Über Bluetooth versenden",
        "Description[el]": "Αποστολή μέσω bluetooth",
        "Description[en_GB]": "Send via Bluetooth",
        "Description[es]": "Enviar por Bluetooth",
        "Description[et]": "Saatmine Bluetoothi kaudu",
        "Description[eu]": "Bidali bluetooth bidez",
        "Description[fi]": "Lähetä Bluetoothilla",
        "Description[fr]": "Envoyer via Bluetooth",
        "Description[gl]": "Enviar por Bluetooth…",
        "Description[hu]": "Küldés Bluetoothon",
        "Description[ia]": "Invia via Bluetooth",
        "Description[id]": "Kirimkan via Bluetooth",
        "Description[it]": "Invia tramite Bluetooth",
        "Description[ko]": "블루투스로 보내기",
        "Description[lt]": "Siųsti per Bluetooth",
        "Description[ml]": "ബ്ലൂടൂത്ത് വഴി അയക്കുക",
        "Description[nl]": "Verzenden over bluetooth",
        "Description[nn]": "Send over Bluetooth",
        "Description[pl]": "Prześlij przez Bluetooth",
        "Description[pt]": "Enviar por Bluetooth",
        "Description[pt_BR]": "Enviar por Bluetooth",
        "Description[ru]": "Отправка по Bluetooth",
        "Description[sk]": "Poslať cez Bluetooth",
        "Description[sl]": "Pošlji prek Bluetootha",
        "Description[sv]": "Skicka via Blåtand",
        "Description[ta]": "Bluetooth மூலம் அனுப்பு",
        "Description[tg]": "Фиристодан ба воситаи Bluetooth",
        "Description[uk]": "Надсилання за допомогою Bluetooth",
        "Description[x-test]": "xxSend via Bluetoothxx",
        "Description[zh_CN]": "通过蓝牙发送",
        "Description[zh_TW]": "透過藍牙傳送",
        "Icon": "preferences-system-bluetooth",
        "License": "GPL",
        "Name": "Send via Bluetooth",
        "Name[ar]": "أرسِل عبر بلوتوث",
        "Name[az]": "Bluetooth ilə göndərmək",
        "Name[ca]": "Envia per Bluetooth",
        "Name[cs]": "Poslat přes Bluetooth",
        "Name[da]": "Send via Bluetooth",
        "Name[de]": "Über Bluetooth versenden",
        "Name[el]": "Αποστολή μέσω bluetooth",
        "Name[en_GB]": "Send via Bluetooth",
        "Name[es]": "Enviar por Bluetooth",
        "Name[et]": "Saatmine Bluetoothi kaudu",
        "Name[eu]": "Bidali Bluetooth bidez",
        "Name[fi]": "Lähetä Bluetoothilla",
        "Name[fr]": "Envoyer via Bluetooth",
        "Name[gl]": "Enviar por Bluetooth",
        "Name[hu]": "Küldés Bluetoothon",
        "Name[ia]": "Invia via Bluetooth",
        "Name[id]": "Kirimkan via Bluetooth",
        "Name[it]": "Invia tramite Bluetooth",
        "Name[ko]": "블루투스로 보내기",
        "Name[lt]": "Siųsti per Bluetooth",
        "Name[ml]": "ബ്ലൂടുത്ത് വഴി അയക്കുക",
        "Name[nl]": "Verzenden over bluetooth",
        "Name[nn]": "Send over Bluetooth",
        "Name[pl]": "Prześlij przez Bluetooth",
        "Name[pt]": "Enviar por Bluetooth",
        "Name[pt_BR]": "Enviar por Bluetooth",
        "Name[ru]": "Отправка по Bluetooth",
        "Name[sk]": "Poslať cez Bluetooth",
        "Name[sl]": "Pošlji prek Bluetootha",
        "Name[sv]": "Skicka via Blåtand",
        "Name[ta]": "Bluetooth மூலம் அனுப்பு",
        "Name[tg]": "Фиристодан ба воситаи Bluetooth",
        "Name[uk]": "Надсилання за допомогою Bluetooth",
        "Name[x-test]": "xxSend via Bluetoothxx",
        "Name[zh_CN]": "通过蓝牙发送",
        "Name[zh_TW]": "透過藍牙傳送",
        "X-Purpose-ActionDisplay": "Send via Bluetooth...",
        "X-Purpose-ActionDisplay[ar]": "أرسِل عبر بلوتوث...",
        "X-Purpose-ActionDisplay[az]": "Bluetooth ilə göndər...",
        "X-Purpose-ActionDisplay[ca]": "Envia per Bluetooth...",
        "X-Purpose-ActionDisplay[cs]": "Poslat přes Bluetooth...",
        "X-Purpose-ActionDisplay[da]": "Send via Bluetooth...",
        "X-Purpose-ActionDisplay[de]": "Über Bluetooth versenden ...",
        "X-Purpose-ActionDisplay[el]": "Αποστολή μέσω bluetooth...",
        "X-Purpose-ActionDisplay[en_GB]": "Send via Bluetooth...",
        "X-Purpose-ActionDisplay[es]": "Enviar por Bluetooth...",
        "X-Purpose-ActionDisplay[et]": "Saada Bluetoothi kaudu ...",
        "X-Purpose-ActionDisplay[eu]": "Bidali Bluetooth bidez...",
        "X-Purpose-ActionDisplay[fi]": "Lähetä Bluetoothilla…",
        "X-Purpose-ActionDisplay[fr]": "Envoyer via Bluetooth...",
        "X-Purpose-ActionDisplay[gl]": "Enviar por Bluetooth…",
        "X-Purpose-ActionDisplay[hu]": "Küldés Bluetoothon…",
        "X-Purpose-ActionDisplay[ia]": "Invia via Bluetooth...",
        "X-Purpose-ActionDisplay[id]": "Kirimkan via Bluetooth...",
        "X-Purpose-ActionDisplay[it]": "Invia tramite Bluetooth...",
        "X-Purpose-ActionDisplay[ko]": "블루투스로 보내기...",
        "X-Purpose-ActionDisplay[lt]": "Siųsti per Bluetooth...",
        "X-Purpose-ActionDisplay[ml]": "ബ്ലൂടുത്ത് വഴി അയക്കുക...",
        "X-Purpose-ActionDisplay[nl]": "Verzenden over bluetooth...",
        "X-Purpose-ActionDisplay[nn]": "Send over Bluetooth …",
        "X-Purpose-ActionDisplay[pl]": "Prześlij przez Bluetooth...",
        "X-Purpose-ActionDisplay[pt]": "Enviar por Bluetooth...",
        "X-Purpose-ActionDisplay[pt_BR]": "Enviar por Bluetooth...",
        "X-Purpose-ActionDisplay[ru]": "Отправить по Bluetooth...",
        "X-Purpose-ActionDisplay[sk]": "Poslať cez Bluetooth...",
        "X-Purpose-ActionDisplay[sl]": "Pošlji prek Bluetootha...",
        "X-Purpose-ActionDisplay[sv]": "Skicka via Blåtand...",
        "X-Purpose-ActionDisplay[ta]": "Bluetooth மூலம் அனுப்பு...",
        "X-Purpose-ActionDisplay[tg]": "Фиристодан ба воситаи Bluetooth...",
        "X-Purpose-ActionDisplay[uk]": "Надіслати за допомогою Bluetooth…",
        "X-Purpose-ActionDisplay[x-test]": "xxSend via Bluetooth...xx",
        "X-Purpose-ActionDisplay[zh_CN]": "通过蓝牙发送...",
        "X-Purpose-ActionDisplay[zh_TW]": "透過藍牙傳送……"
    },
    "X-Purpose-Configuration": [
        "device"
    ],
    "X-Purpose-Constraints": [],
    "X-Purpose-PluginTypes": [
        "Export"
    ]
}
