{
    "KPlugin": {
        "Authors": [
            {
                "Name": "Aleix Pol",
                "Name[ar]": "Aleix Pol",
                "Name[az]": "Aleix Pol",
                "Name[ca@valencia]": "Aleix Pol",
                "Name[ca]": "Aleix Pol",
                "Name[cs]": "Aleix Pol",
                "Name[da]": "Aleix Pol",
                "Name[de]": "Aleix Pol",
                "Name[el]": "Aleix Pol",
                "Name[en_GB]": "Aleix Pol",
                "Name[es]": "Aleix Pol",
                "Name[et]": "Aleix Pol",
                "Name[eu]": "Aleix Pol",
                "Name[fi]": "Aleix Pol",
                "Name[fr]": "Aleix Pol",
                "Name[gl]": "Aleix Pol",
                "Name[hu]": "Aleix Pol",
                "Name[ia]": "Aleix Pol",
                "Name[id]": "Aleix Pol",
                "Name[it]": "Aleix Pol",
                "Name[ko]": "Aleix Pol",
                "Name[lt]": "Aleix Pol",
                "Name[nl]": "Aleix Pol",
                "Name[nn]": "Aleix Pol",
                "Name[pl]": "Aleix Pol",
                "Name[pt]": "Aleix Pol",
                "Name[pt_BR]": "Aleix Pol",
                "Name[ru]": "Aleix Pol",
                "Name[sk]": "Aleix Pol",
                "Name[sl]": "Aleix Pol",
                "Name[sv]": "Aleix Pol",
                "Name[tg]": "Алекс Пол (Aleix Pol)",
                "Name[tr]": "Aleix Pol",
                "Name[uk]": "Aleix Pol",
                "Name[x-test]": "xxAleix Polxx",
                "Name[zh_CN]": "Aleix Pol",
                "Name[zh_TW]": "Aleix Pol"
            }
        ],
        "Category": "Utilities",
        "Description": "Send through Instant Messaging",
        "Description[ar]": "أرسِل عبر «التراسل الآني»",
        "Description[az]": "Şəxsi İsmarıcla göndərmək",
        "Description[ca@valencia]": "Envia a través de missatgeria instantània",
        "Description[ca]": "Envia a través de missatgeria instantània",
        "Description[cs]": "Poslat skrz chat",
        "Description[da]": "Send via instant messaging",
        "Description[de]": "Mit Instant-Messaging versenden",
        "Description[el]": "Αποστολή με στιγμιαίο μήνυμα",
        "Description[en_GB]": "Send through Instant Messaging",
        "Description[es]": "Enviar por mensajería instantánea",
        "Description[et]": "Saatmine kiirsuhtlusrakenduse kaudu",
        "Description[eu]": "Bidali berehalako mezularitza bitartez",
        "Description[fi]": "Lähetä pikaviestinnän välityksellä",
        "Description[fr]": "Envoyer via messagerie instantanée",
        "Description[gl]": "Enviar por mensaxaría instantánea.",
        "Description[hu]": "Küldés azonnali üzenetküldéssel",
        "Description[ia]": "Invia per Instant Messaging (Messaggeria instantanee)",
        "Description[id]": "Kirimkan melalui Instant Messaging",
        "Description[it]": "Invia tramite messaggistica istantanea",
        "Description[ko]": "인스턴트 메신저로 보내기",
        "Description[lt]": "Siųsti per tikralaikius pokalbius",
        "Description[ml]": "ഇന്‍സ്റ്റന്റ് മെസേജിംഗിലൂടെ അയക്കുക",
        "Description[nl]": "Via Instant Messaging verzenden",
        "Description[nn]": "Send via lynmelding",
        "Description[pl]": "Prześlij przez komunikatora internetowego",
        "Description[pt]": "Enviar pelas Mensagens Instantâneas",
        "Description[pt_BR]": "Envia por mensagem instantânea",
        "Description[ru]": "Отправка в личном сообщении",
        "Description[sk]": "Poslať cez instantné správy",
        "Description[sl]": "Pošlji prek storitve Instant Messaging",
        "Description[sv]": "Skicka via direktmeddelanden",
        "Description[tg]": "Фиристодан ба воситаи паёмнависии фаврӣ",
        "Description[tr]": "Anında Mesajlaşma ile Gönder",
        "Description[uk]": "Надіслати за допомогою служби обміну повідомленнями",
        "Description[x-test]": "xxSend through Instant Messagingxx",
        "Description[zh_CN]": "通过即时消息发送",
        "Description[zh_TW]": "透過即時訊息傳送",
        "Icon": "im-user",
        "License": "GPL",
        "Name": "Send To Contact",
        "Name[ar]": "أرسِل إلى متراسل…",
        "Name[az]": "Kontakta göndərmək",
        "Name[ca]": "Envia a un contacte",
        "Name[cs]": "Poslat kontaktu",
        "Name[da]": "Send til kontakt",
        "Name[de]": "An Kontakt senden",
        "Name[el]": "Αποστολή σε επαφή",
        "Name[en_GB]": "Send To Contact",
        "Name[es]": "Enviar a contacto",
        "Name[et]": "Saatmine kontaktile",
        "Name[eu]": "Bidali kontaktuari",
        "Name[fi]": "Lähetä vastaanottajalle…",
        "Name[fr]": "Envoyer au contact...",
        "Name[gl]": "Enviar a un contacto",
        "Name[hu]": "Küldés névjegynek",
        "Name[ia]": "Invia a Contact",
        "Name[id]": "Kirimkan Ke Kontak...",
        "Name[it]": "Invia a contatto",
        "Name[ko]": "연락처에게 보내기",
        "Name[lt]": "Siųsti adresatui",
        "Name[nl]": "Naar contactpersoon verzenden",
        "Name[nn]": "Send til kontakt",
        "Name[pl]": "Prześlij do kontaktu",
        "Name[pt]": "Enviar para o Contacto",
        "Name[pt_BR]": "Enviar para o contato",
        "Name[ru]": "Отправка в адрес контакта",
        "Name[sk]": "Poslať kontaktu...",
        "Name[sl]": "Pošlji prek Contacta",
        "Name[sv]": "Skicka till kontakt",
        "Name[ta]": "தொடர்புக்கு அனுப்பு",
        "Name[tg]": "Фиристодан ба тамос",
        "Name[uk]": "Надіслати контакту",
        "Name[x-test]": "xxSend To Contactxx",
        "Name[zh_CN]": "发送给联系人",
        "Name[zh_TW]": "傳送給聯絡人",
        "X-Purpose-ActionDisplay": "Send To Contact...",
        "X-Purpose-ActionDisplay[ar]": "أرسِل إلى متراسل…...",
        "X-Purpose-ActionDisplay[az]": "İsmarıcda göndər...",
        "X-Purpose-ActionDisplay[ca]": "Envia a un contacte...",
        "X-Purpose-ActionDisplay[cs]": "Poslat kontaktu...",
        "X-Purpose-ActionDisplay[da]": "Send til kontakt...",
        "X-Purpose-ActionDisplay[de]": "An Kontakt senden ...",
        "X-Purpose-ActionDisplay[el]": "Αποστολή σε επαφή...",
        "X-Purpose-ActionDisplay[en_GB]": "Send To Contact...",
        "X-Purpose-ActionDisplay[es]": "Enviar a contacto...",
        "X-Purpose-ActionDisplay[et]": "Saada kontaktile ...",
        "X-Purpose-ActionDisplay[eu]": "Bidali kontaktuari...",
        "X-Purpose-ActionDisplay[fi]": "Lähetä vastaanottajalle…",
        "X-Purpose-ActionDisplay[fr]": "Envoyer au contact...",
        "X-Purpose-ActionDisplay[gl]": "Enviar a un contacto…",
        "X-Purpose-ActionDisplay[hu]": "Küldés névjegynek…",
        "X-Purpose-ActionDisplay[ia]": "Invia a Contact...",
        "X-Purpose-ActionDisplay[id]": "Kirimkan Ke Kontak...",
        "X-Purpose-ActionDisplay[it]": "Invia a contatto...",
        "X-Purpose-ActionDisplay[ko]": "연락처에게 보내기...",
        "X-Purpose-ActionDisplay[lt]": "Siųsti adresatui...",
        "X-Purpose-ActionDisplay[nl]": "Naar contactpersoon verzenden...",
        "X-Purpose-ActionDisplay[nn]": "Send til kontakt …",
        "X-Purpose-ActionDisplay[pl]": "Prześlij do kontaktu...",
        "X-Purpose-ActionDisplay[pt]": "Enviar para o Contacto...",
        "X-Purpose-ActionDisplay[pt_BR]": "Enviar para o contato...",
        "X-Purpose-ActionDisplay[ru]": "Отправить в сообщении...",
        "X-Purpose-ActionDisplay[sk]": "Poslať kontaktu...",
        "X-Purpose-ActionDisplay[sl]": "Pošlji prek Contacta...",
        "X-Purpose-ActionDisplay[sv]": "Skicka till kontakt...",
        "X-Purpose-ActionDisplay[ta]": "தொடர்புக்கு அனுப்பு...",
        "X-Purpose-ActionDisplay[tg]": "Фиристодан ба тамос...",
        "X-Purpose-ActionDisplay[uk]": "Надіслати контакту…",
        "X-Purpose-ActionDisplay[x-test]": "xxSend To Contact...xx",
        "X-Purpose-ActionDisplay[zh_CN]": "发送给联系人...",
        "X-Purpose-ActionDisplay[zh_TW]": "傳送給聯絡人..."
    },
    "X-Purpose-Configuration": "",
    "X-Purpose-Constraints": [
        "exec:ktp-send-file"
    ],
    "X-Purpose-PluginTypes": [
        "Export"
    ]
}
